wet2/dump.vcd
$date
  Tue Apr 26 20:33:37 2016
$end
$version
  GHDL v0
$end
$timescale
  1 fs
$end
$var reg 1 ! s $end
$var reg 1 " cout $end
$var reg 3 # in_vec[0:2] $end
$scope module fa_1 $end
$var reg 1 $ a $end
$var reg 1 % b $end
$var reg 1 & cin $end
$var reg 1 ' cout $end
$var reg 1 ( s $end
$var reg 1 ) s_1 $end
$var reg 1 * s_2 $end
$var reg 1 + cout_1 $end
$var reg 1 , cout_2 $end
$scope module ha_1 $end
$var reg 1 - a $end
$var reg 1 . b $end
$var reg 1 / cout $end
$var reg 1 0 s $end
$upscope $end
$scope module ha_2 $end
$var reg 1 1 a $end
$var reg 1 2 b $end
$var reg 1 3 cout $end
$var reg 1 4 s $end
$upscope $end
$upscope $end
$enddefinitions $end
#0
0!
0"
b000 #
0$
0%
0&
0'
0(
0)
U*
0+
0,
0-
0.
0/
00
01
02
03
04
#2000000
1!
b001 #
1&
1(
12
14
#4000000
1!
b010 #
1%
0&
1(
1)
1.
10
11
02
14
#6000000
0!
1"
b011 #
1&
1'
0(
1,
12
13
04
#8000000
1!
0"
b100 #
1$
0%
0&
0'
1(
0,
1-
0.
02
03
14
#10000000
0!
1"
b101 #
1&
1'
0(
1,
12
13
04
#12000000
0!
b110 #
1%
0&
0(
0)
1+
0,
1.
1/
00
01
02
03
04
#14000000
1!
b111 #
1&
1(
12
14
#16000000
0!
0"
b000 #
0$
0%
0&
0'
0(
0+
0-
0.
0/
02
04
#18000000
1!
b001 #
1&
1(
12
14
