wet2/pipedmul.vcd
$date
  Tue Apr 26 23:23:03 2016
$end
$version
  GHDL v0
$end
$timescale
  1 fs
$end
$var reg 1 ! clk $end
$var reg 6 " s[5:0] $end
$var reg 1 # rstn $end
$var reg 6 $ in_vec[5:0] $end
$scope module pipedmul_1 $end
$var reg 4 % a[3:0] $end
$var reg 2 & b[1:0] $end
$var reg 1 ' clk $end
$var reg 1 ( rstn $end
$var reg 6 ) s[5:0] $end
$var reg 5 * line1_in0[4:0] $end
$var reg 5 + line1_in1[4:0] $end
$var reg 1 , s1_out0 $end
$var reg 1 - s1_out1 $end
$var reg 1 . c_corner $end
$var reg 4 / s4_out[3:0] $end
$var reg 3 0 s3_out[2:0] $end
$var reg 2 1 s2_out[1:0] $end
$var reg 5 2 s_line0[4:0] $end
$var reg 5 3 s_line1[4:0] $end
$scope module reg0 $end
$var reg 5 4 d[4:0] $end
$var reg 5 5 q[4:0] $end
$var reg 1 6 clk $end
$var reg 1 7 rstn $end
$upscope $end
$scope module reg1 $end
$var reg 5 8 d[4:0] $end
$var reg 5 9 q[4:0] $end
$var reg 1 : clk $end
$var reg 1 ; rstn $end
$upscope $end
$scope module reg_c_corner $end
$var reg 1 < d[0:0] $end
$var reg 1 = q[0:0] $end
$var reg 1 > clk $end
$var reg 1 ? rstn $end
$upscope $end
$scope module line0 $end
$var reg 4 @ a[3:0] $end
$var reg 4 A si[3:0] $end
$var reg 1 B b $end
$var reg 1 C clk $end
$var reg 1 D rstn $end
$var reg 5 E so[4:0] $end
$var reg 6 F in0[5:0] $end
$var reg 4 G in1[3:0] $end
$var reg 2 H in2[1:0] $end
$var reg 3 I carries[2:0] $end
$scope module reg0 $end
$var reg 6 J d[5:0] $end
$var reg 6 K q[5:0] $end
$var reg 1 L clk $end
$var reg 1 M rstn $end
$upscope $end
$scope module reg1 $end
$var reg 4 N d[3:0] $end
$var reg 4 O q[3:0] $end
$var reg 1 P clk $end
$var reg 1 Q rstn $end
$upscope $end
$scope module reg3 $end
$var reg 2 R d[1:0] $end
$var reg 2 S q[1:0] $end
$var reg 1 T clk $end
$var reg 1 U rstn $end
$upscope $end
$scope module mul0 $end
$var reg 1 V a $end
$var reg 1 W b $end
$var reg 1 X ci $end
$var reg 1 Y si $end
$var reg 1 Z clk $end
$var reg 1 [ rstn $end
$var reg 1 \ co[0:0] $end
$var reg 1 ] so[0:0] $end
$var reg 1 ^ s_val[0:0] $end
$var reg 1 _ c_val[0:0] $end
$scope module mul_1 $end
$upscope $end
$scope module reg_c $end
$var reg 1 ` d[0:0] $end
$var reg 1 a q[0:0] $end
$var reg 1 b clk $end
$var reg 1 c rstn $end
$upscope $end
$scope module reg_s $end
$var reg 1 d d[0:0] $end
$var reg 1 e q[0:0] $end
$var reg 1 f clk $end
$var reg 1 g rstn $end
$upscope $end
$upscope $end
$scope module mul1 $end
$var reg 1 h a $end
$var reg 1 i b $end
$var reg 1 j ci $end
$var reg 1 k si $end
$var reg 1 l clk $end
$var reg 1 m rstn $end
$var reg 1 n co[0:0] $end
$var reg 1 o so[0:0] $end
$var reg 1 p s_val[0:0] $end
$var reg 1 q c_val[0:0] $end
$scope module mul_1 $end
$upscope $end
$scope module reg_c $end
$var reg 1 r d[0:0] $end
$var reg 1 s q[0:0] $end
$var reg 1 t clk $end
$var reg 1 u rstn $end
$upscope $end
$scope module reg_s $end
$var reg 1 v d[0:0] $end
$var reg 1 w q[0:0] $end
$var reg 1 x clk $end
$var reg 1 y rstn $end
$upscope $end
$upscope $end
$scope module mul2 $end
$var reg 1 z a $end
$var reg 1 { b $end
$var reg 1 | ci $end
$var reg 1 } si $end
$var reg 1 !" clk $end
$var reg 1 "" rstn $end
$var reg 1 #" co[0:0] $end
$var reg 1 $" so[0:0] $end
$var reg 1 %" s_val[0:0] $end
$var reg 1 &" c_val[0:0] $end
$scope module mul_1 $end
$upscope $end
$scope module reg_c $end
$var reg 1 '" d[0:0] $end
$var reg 1 (" q[0:0] $end
$var reg 1 )" clk $end
$var reg 1 *" rstn $end
$upscope $end
$scope module reg_s $end
$var reg 1 +" d[0:0] $end
$var reg 1 ," q[0:0] $end
$var reg 1 -" clk $end
$var reg 1 ." rstn $end
$upscope $end
$upscope $end
$scope module mul3 $end
$var reg 1 /" a $end
$var reg 1 0" b $end
$var reg 1 1" ci $end
$var reg 1 2" si $end
$var reg 1 3" clk $end
$var reg 1 4" rstn $end
$var reg 1 5" co[0:0] $end
$var reg 1 6" so[0:0] $end
$var reg 1 7" s_val[0:0] $end
$var reg 1 8" c_val[0:0] $end
$scope module mul_1 $end
$upscope $end
$scope module reg_c $end
$var reg 1 9" d[0:0] $end
$var reg 1 :" q[0:0] $end
$var reg 1 ;" clk $end
$var reg 1 <" rstn $end
$upscope $end
$scope module reg_s $end
$var reg 1 =" d[0:0] $end
$var reg 1 >" q[0:0] $end
$var reg 1 ?" clk $end
$var reg 1 @" rstn $end
$upscope $end
$upscope $end
$upscope $end
$scope module line1 $end
$var reg 4 A" a[3:0] $end
$var reg 4 B" si[3:0] $end
$var reg 1 C" b $end
$var reg 1 D" clk $end
$var reg 1 E" rstn $end
$var reg 5 F" so[4:0] $end
$var reg 6 G" in0[5:0] $end
$var reg 4 H" in1[3:0] $end
$var reg 2 I" in2[1:0] $end
$var reg 3 J" carries[2:0] $end
$scope module reg0 $end
$var reg 6 K" d[5:0] $end
$var reg 6 L" q[5:0] $end
$var reg 1 M" clk $end
$var reg 1 N" rstn $end
$upscope $end
$scope module reg1 $end
$var reg 4 O" d[3:0] $end
$var reg 4 P" q[3:0] $end
$var reg 1 Q" clk $end
$var reg 1 R" rstn $end
$upscope $end
$scope module reg3 $end
$var reg 2 S" d[1:0] $end
$var reg 2 T" q[1:0] $end
$var reg 1 U" clk $end
$var reg 1 V" rstn $end
$upscope $end
$scope module mul0 $end
$var reg 1 W" a $end
$var reg 1 X" b $end
$var reg 1 Y" ci $end
$var reg 1 Z" si $end
$var reg 1 [" clk $end
$var reg 1 \" rstn $end
$var reg 1 ]" co[0:0] $end
$var reg 1 ^" so[0:0] $end
$var reg 1 _" s_val[0:0] $end
$var reg 1 `" c_val[0:0] $end
$scope module mul_1 $end
$upscope $end
$scope module reg_c $end
$var reg 1 a" d[0:0] $end
$var reg 1 b" q[0:0] $end
$var reg 1 c" clk $end
$var reg 1 d" rstn $end
$upscope $end
$scope module reg_s $end
$var reg 1 e" d[0:0] $end
$var reg 1 f" q[0:0] $end
$var reg 1 g" clk $end
$var reg 1 h" rstn $end
$upscope $end
$upscope $end
$scope module mul1 $end
$var reg 1 i" a $end
$var reg 1 j" b $end
$var reg 1 k" ci $end
$var reg 1 l" si $end
$var reg 1 m" clk $end
$var reg 1 n" rstn $end
$var reg 1 o" co[0:0] $end
$var reg 1 p" so[0:0] $end
$var reg 1 q" s_val[0:0] $end
$var reg 1 r" c_val[0:0] $end
$scope module mul_1 $end
$upscope $end
$scope module reg_c $end
$var reg 1 s" d[0:0] $end
$var reg 1 t" q[0:0] $end
$var reg 1 u" clk $end
$var reg 1 v" rstn $end
$upscope $end
$scope module reg_s $end
$var reg 1 w" d[0:0] $end
$var reg 1 x" q[0:0] $end
$var reg 1 y" clk $end
$var reg 1 z" rstn $end
$upscope $end
$upscope $end
$scope module mul2 $end
$var reg 1 {" a $end
$var reg 1 |" b $end
$var reg 1 }" ci $end
$var reg 1 !# si $end
$var reg 1 "# clk $end
$var reg 1 ## rstn $end
$var reg 1 $# co[0:0] $end
$var reg 1 %# so[0:0] $end
$var reg 1 &# s_val[0:0] $end
$var reg 1 '# c_val[0:0] $end
$scope module mul_1 $end
$upscope $end
$scope module reg_c $end
$var reg 1 (# d[0:0] $end
$var reg 1 )# q[0:0] $end
$var reg 1 *# clk $end
$var reg 1 +# rstn $end
$upscope $end
$scope module reg_s $end
$var reg 1 ,# d[0:0] $end
$var reg 1 -# q[0:0] $end
$var reg 1 .# clk $end
$var reg 1 /# rstn $end
$upscope $end
$upscope $end
$scope module mul3 $end
$var reg 1 0# a $end
$var reg 1 1# b $end
$var reg 1 2# ci $end
$var reg 1 3# si $end
$var reg 1 4# clk $end
$var reg 1 5# rstn $end
$var reg 1 6# co[0:0] $end
$var reg 1 7# so[0:0] $end
$var reg 1 8# s_val[0:0] $end
$var reg 1 9# c_val[0:0] $end
$scope module mul_1 $end
$upscope $end
$scope module reg_c $end
$var reg 1 :# d[0:0] $end
$var reg 1 ;# q[0:0] $end
$var reg 1 <# clk $end
$var reg 1 =# rstn $end
$upscope $end
$scope module reg_s $end
$var reg 1 ># d[0:0] $end
$var reg 1 ?# q[0:0] $end
$var reg 1 @# clk $end
$var reg 1 A# rstn $end
$upscope $end
$upscope $end
$upscope $end
$scope module out_reg_4 $end
$var reg 4 B# d[3:0] $end
$var reg 4 C# q[3:0] $end
$var reg 1 D# clk $end
$var reg 1 E# rstn $end
$upscope $end
$scope module out_reg_3 $end
$var reg 3 F# d[2:0] $end
$var reg 3 G# q[2:0] $end
$var reg 1 H# clk $end
$var reg 1 I# rstn $end
$upscope $end
$scope module out_reg_2 $end
$var reg 2 J# d[1:0] $end
$var reg 2 K# q[1:0] $end
$var reg 1 L# clk $end
$var reg 1 M# rstn $end
$upscope $end
$scope module out_reg_1a $end
$var reg 1 N# d[0:0] $end
$var reg 1 O# q[0:0] $end
$var reg 1 P# clk $end
$var reg 1 Q# rstn $end
$upscope $end
$scope module out_reg_1b $end
$var reg 1 R# d[0:0] $end
$var reg 1 S# q[0:0] $end
$var reg 1 T# clk $end
$var reg 1 U# rstn $end
$upscope $end
$upscope $end
$enddefinitions $end
#0
U!
bUUUUUU "
1#
b000000 $
b0000 %
b00 &
U'
1(
bUUUUUU )
bUUUUU *
bUUUUU +
U,
U-
U.
bUUUU /
bUUU 0
bUU 1
bUUUUU 2
bUUUUU 3
b00000 4
bUUUUU 5
U6
17
bUUUUU 8
bUUUUU 9
U:
1;
bU <
bU =
U>
1?
b0000 @
b0000 A
0B
UC
1D
bUUUUU E
bUUUUUU F
bUUUU G
bUU H
bUUU I
b000000 J
bUUUUUU K
UL
1M
bUUUU N
bUUUU O
UP
1Q
bUU R
bUU S
UT
1U
0V
0W
0X
0Y
UZ
1[
bU \
bU ]
bU ^
bU _
bU `
bU a
Ub
1c
bU d
bU e
Uf
1g
Uh
Ui
Uj
0k
Ul
1m
bU n
bU o
bU p
bU q
bU r
bU s
Ut
1u
bU v
bU w
Ux
1y
Uz
U{
U|
0}
U!"
1""
bU #"
bU $"
bU %"
bU &"
bU '"
bU ("
U)"
1*"
bU +"
bU ,"
U-"
1."
U/"
U0"
U1"
02"
U3"
14"
bU 5"
bU 6"
bU 7"
bU 8"
bU 9"
bU :"
U;"
1<"
bU ="
bU >"
U?"
1@"
bUUUU A"
bUUUU B"
UC"
UD"
1E"
bUUUUU F"
bUUUUUU G"
bUUUU H"
bUU I"
bUUU J"
bUUUUUU K"
bUUUUUU L"
UM"
1N"
bUUUU O"
bUUUU P"
UQ"
1R"
bUU S"
bUU T"
UU"
1V"
UW"
UX"
0Y"
UZ"
U["
1\"
bU ]"
bU ^"
bU _"
bU `"
bU a"
bU b"
Uc"
1d"
bU e"
bU f"
Ug"
1h"
Ui"
Uj"
Uk"
Ul"
Um"
1n"
bU o"
bU p"
bU q"
bU r"
bU s"
bU t"
Uu"
1v"
bU w"
bU x"
Uy"
1z"
U{"
U|"
U}"
U!#
U"#
1##
bU $#
bU %#
bU &#
bU '#
bU (#
bU )#
U*#
1+#
bU ,#
bU -#
U.#
1/#
U0#
U1#
U2#
U3#
U4#
15#
bU 6#
bU 7#
bU 8#
bU 9#
bU :#
bU ;#
U<#
1=#
bU >#
bU ?#
U@#
1A#
bUUUU B#
bUUUU C#
UD#
1E#
bUUU F#
bUUU G#
UH#
1I#
bUU J#
bUU K#
UL#
1M#
bU N#
bU O#
UP#
1Q#
bU R#
bU S#
UT#
1U#
#1000000
0!
0'
06
0:
0>
0C
0L
0P
0T
0Z
0b
0f
0l
0t
0x
0!"
0)"
0-"
03"
0;"
0?"
0D"
0M"
0Q"
0U"
0["
0c"
0g"
0m"
0u"
0y"
0"#
0*#
0.#
04#
0<#
0@#
0D#
0H#
0L#
0P#
0T#
#2000000
1!
b000001 $
b01 &
1'
b00000 *
b00000 5
16
b00000 8
1:
1>
1B
1C
b101010 F
b101010 J
b101010 K
1L
b1010 N
1P
1T
1W
1Z
1b
1f
0h
1i
1l
1t
1x
1!"
1)"
1-"
13"
1;"
1?"
1D"
1M"
1Q"
1U"
1["
1c"
1g"
1m"
1u"
1y"
1"#
1*#
1.#
14#
1<#
1@#
1D#
1H#
1L#
1P#
1T#
#3000000
0!
0'
06
0:
0>
0C
0L
0P
0T
0Z
0b
0f
0l
0t
0x
0!"
0)"
0-"
03"
0;"
0?"
0D"
0M"
0Q"
0U"
0["
0c"
0g"
0m"
0u"
0y"
0"#
0*#
0.#
04#
0<#
0@#
0D#
0H#
0L#
0P#
0T#
#4000000
1!
b000010 $
b10 &
1'
b10000 *
b00000 +
b10000 4
b10000 5
16
b10000 8
b00000 9
1:
1>
0B
1C
b000000 F
b1010 G
b000000 J
b000000 K
1L
b0000 N
b1010 O
1P
b10 R
1T
0W
1Z
1b
1f
0i
1l
1t
1x
0z
1{
1!"
1)"
1-"
13"
1;"
1?"
b0000 A"
0C"
1D"
b000000 K"
1M"
1Q"
1U"
0W"
0X"
1["
1c"
1g"
1m"
1u"
1y"
1"#
1*#
1.#
14#
1<#
1@#
1D#
1H#
1L#
1P#
1T#
#5000000
0!
0'
06
0:
0>
0C
0L
0P
0T
0Z
0b
0f
0l
0t
0x
0!"
0)"
0-"
03"
0;"
0?"
0D"
0M"
0Q"
0U"
0["
0c"
0g"
0m"
0u"
0y"
0"#
0*#
0.#
04#
0<#
0@#
0D#
0H#
0L#
0P#
0T#
#6000000
1!
b000011 $
b11 &
1'
b10000 +
16
b10000 9
1:
1>
1B
1C
b101010 F
b0000 G
b10 H
b101010 J
b101010 K
1L
b1010 N
b0000 O
1P
b00 R
b10 S
1T
1W
1Z
1b
1f
1i
1l
1t
1x
0{
1!"
1)"
1-"
0/"
10"
13"
1;"
1?"
1C"
1D"
b000000 G"
b101010 K"
b000000 L"
1M"
b0000 O"
1Q"
1U"
1X"
1["
1c"
1g"
0i"
0j"
1m"
1u"
1y"
1"#
1*#
1.#
14#
1<#
1@#
1D#
1H#
1L#
1P#
1T#
#7000000
0!
0'
06
0:
0>
0C
0L
0P
0T
0Z
0b
0f
0l
0t
0x
0!"
0)"
0-"
03"
0;"
0?"
0D"
0M"
0Q"
0U"
0["
0c"
0g"
0m"
0u"
0y"
0"#
0*#
0.#
04#
0<#
0@#
0D#
0H#
0L#
0P#
0T#
#8000000
1!
b000100 $
b0001 %
b00 &
1'
b00001 *
b00001 4
b00001 5
16
b00001 8
1:
1>
b0001 @
0B
1C
b000000 F
b1010 G
b00 H
b000000 J
b000000 K
1L
b0000 N
b1010 O
1P
b10 R
b00 S
1T
1V
0W
1Z
1b
1f
0i
1l
1t
1x
1{
1!"
1)"
1-"
00"
13"
1;"
1?"
1D"
b101010 G"
b0000 H"
b101010 L"
1M"
b1010 O"
b0000 P"
1Q"
b00 S"
1U"
1["
1c"
1g"
1j"
1m"
1u"
1y"
0{"
0|"
1"#
1*#
1.#
14#
1<#
1@#
1D#
1H#
1L#
1P#
1T#
#9000000
0!
0'
06
0:
0>
0C
0L
0P
0T
0Z
0b
0f
0l
0t
0x
0!"
0)"
0-"
03"
0;"
0?"
0D"
0M"
0Q"
0U"
0["
0c"
0g"
0m"
0u"
0y"
0"#
0*#
0.#
04#
0<#
0@#
0D#
0H#
0L#
0P#
0T#
#10000000
1!
b000101 $
b01 &
1'
b00001 +
16
b00001 9
1:
1>
1B
1C
b101010 F
b0000 G
b10 H
b101010 J
b101010 K
1L
b1010 N
b0000 O
1P
b00 R
b10 S
1T
1W
1Z
1b
1f
1i
1l
1t
1x
0{
1!"
1)"
1-"
10"
13"
1;"
1?"
b0001 A"
0C"
1D"
b1010 H"
b00 I"
b000000 K"
1M"
b1010 P"
1Q"
b10 S"
b00 T"
1U"
1W"
0X"
1["
1c"
1g"
1m"
1u"
1y"
1|"
1"#
1*#
1.#
00#
01#
14#
1<#
1@#
1D#
1H#
1L#
1P#
1T#
#11000000
0!
0'
06
0:
0>
0C
0L
0P
0T
0Z
0b
0f
0l
0t
0x
0!"
0)"
0-"
03"
0;"
0?"
0D"
0M"
0Q"
0U"
0["
0c"
0g"
0m"
0u"
0y"
0"#
0*#
0.#
04#
0<#
0@#
0D#
0H#
0L#
0P#
0T#
#12000000
1!
b000110 $
b10 &
1'
b10001 *
b10001 4
b10001 5
16
b10001 8
1:
1>
0B
1C
b000000 F
b1010 G
b00 H
b000000 J
b000000 K
1L
b0000 N
b1010 O
1P
b10 R
b00 S
1T
0W
1Z
1b
1f
0i
1l
1t
1x
1{
1!"
1)"
1-"
00"
13"
1;"
1?"
1D"
b000000 G"
b10 I"
b000000 L"
1M"
b0000 O"
1Q"
b10 T"
1U"
1["
1c"
1g"
0j"
1m"
1u"
1y"
1"#
1*#
1.#
11#
14#
1<#
1@#
1D#
1H#
1L#
1P#
1T#
#13000000
0!
0'
06
0:
0>
0C
0L
0P
0T
0Z
0b
0f
0l
0t
0x
0!"
0)"
0-"
03"
0;"
0?"
0D"
0M"
0Q"
0U"
0["
0c"
0g"
0m"
0u"
0y"
0"#
0*#
0.#
04#
0<#
0@#
0D#
0H#
0L#
0P#
0T#
#14000000
1!
b000111 $
b11 &
1'
b10001 +
16
b10001 9
1:
1>
1B
1C
b101010 F
b0000 G
b10 H
b101010 J
b101010 K
1L
b1010 N
b0000 O
1P
b00 R
b10 S
1T
1W
1Z
1b
1f
1i
1l
1t
1x
0{
1!"
1)"
1-"
10"
13"
1;"
1?"
1C"
1D"
b0000 H"
b101010 K"
1M"
b0000 P"
1Q"
b00 S"
1U"
1X"
1["
1c"
1g"
1m"
1u"
1y"
0|"
1"#
1*#
1.#
14#
1<#
1@#
1D#
1H#
1L#
1P#
1T#
#15000000
0!
0'
06
0:
0>
0C
0L
0P
0T
0Z
0b
0f
0l
0t
0x
0!"
0)"
0-"
03"
0;"
0?"
0D"
0M"
0Q"
0U"
0["
0c"
0g"
0m"
0u"
0y"
0"#
0*#
0.#
04#
0<#
0@#
0D#
0H#
0L#
0P#
0T#
#16000000
1!
b001000 $
b0010 %
b00 &
1'
b00010 *
b00010 4
b00010 5
16
b00010 8
1:
1>
b0010 @
0B
1C
b000001 F
b1010 G
b00 H
b000001 J
b000001 K
1L
b0000 N
b1010 O
1P
b10 R
b00 S
1T
0V
0W
1Z
1b
1f
1h
0i
1l
1t
1x
1{
1!"
1)"
1-"
00"
13"
1;"
1?"
1D"
b101010 G"
b00 I"
b101010 L"
1M"
b1010 O"
1Q"
b00 T"
1U"
1["
1c"
1g"
1j"
1m"
1u"
1y"
1"#
1*#
1.#
01#
14#
1<#
1@#
1D#
1H#
1L#
1P#
1T#
#17000000
0!
0'
06
0:
0>
0C
0L
0P
0T
0Z
0b
0f
0l
0t
0x
0!"
0)"
0-"
03"
0;"
0?"
0D"
0M"
0Q"
0U"
0["
0c"
0g"
0m"
0u"
0y"
0"#
0*#
0.#
04#
0<#
0@#
0D#
0H#
0L#
0P#
0T#
#18000000
1!
b001001 $
b01 &
1'
b00010 +
16
b00010 9
1:
1>
1B
1C
b101011 F
b0000 G
b10 H
b101011 J
b101011 K
1L
b1010 N
b0000 O
1P
b00 R
b10 S
1T
1W
1Z
1b
1f
1i
1l
1t
1x
0{
1!"
1)"
1-"
10"
13"
1;"
1?"
b0010 A"
0C"
1D"
b1010 H"
b000001 K"
1M"
b1010 P"
1Q"
b10 S"
1U"
0W"
0X"
1["
1c"
1g"
1m"
1u"
1y"
1|"
1"#
1*#
1.#
14#
1<#
1@#
1D#
1H#
1L#
1P#
1T#
#19000000
0!
0'
06
0:
0>
0C
0L
0P
0T
0Z
0b
0f
0l
0t
0x
0!"
0)"
0-"
03"
0;"
0?"
0D"
0M"
0Q"
0U"
0["
0c"
0g"
0m"
0u"
0y"
0"#
0*#
0.#
04#
0<#
0@#
0D#
0H#
0L#
0P#
0T#
#20000000
1!
b001010 $
b10 &
1'
b10010 *
b10010 4
b10010 5
16
b10010 8
1:
1>
0B
1C
b000001 F
b1010 G
b00 H
b000001 J
b000001 K
1L
b0000 N
b1010 O
1P
b10 R
b00 S
1T
0W
1Z
1b
1f
0i
1l
1t
1x
1{
1!"
1)"
1-"
00"
13"
1;"
1?"
1D"
b000001 G"
b10 I"
b000001 L"
1M"
b0000 O"
1Q"
b10 T"
1U"
1["
1c"
1g"
1i"
0j"
1m"
1u"
1y"
1"#
1*#
1.#
11#
14#
1<#
1@#
1D#
1H#
1L#
1P#
1T#
#21000000
0!
0'
06
0:
0>
0C
0L
0P
0T
0Z
0b
0f
0l
0t
0x
0!"
0)"
0-"
03"
0;"
0?"
0D"
0M"
0Q"
0U"
0["
0c"
0g"
0m"
0u"
0y"
0"#
0*#
0.#
04#
0<#
0@#
0D#
0H#
0L#
0P#
0T#
#22000000
1!
b001011 $
b11 &
1'
b10010 +
16
b10010 9
1:
1>
1B
1C
b101011 F
b0000 G
b10 H
b101011 J
b101011 K
1L
b1010 N
b0000 O
1P
b00 R
b10 S
1T
1W
1Z
1b
1f
1i
1l
1t
1x
0{
1!"
1)"
1-"
10"
13"
1;"
1?"
1C"
1D"
b0000 H"
b101011 K"
1M"
b0000 P"
1Q"
b00 S"
1U"
1X"
1["
1c"
1g"
1m"
1u"
1y"
0|"
1"#
1*#
1.#
14#
1<#
1@#
1D#
1H#
1L#
1P#
1T#
#23000000
0!
0'
06
0:
0>
0C
0L
0P
0T
0Z
0b
0f
0l
0t
0x
0!"
0)"
0-"
03"
0;"
0?"
0D"
0M"
0Q"
0U"
0["
0c"
0g"
0m"
0u"
0y"
0"#
0*#
0.#
04#
0<#
0@#
0D#
0H#
0L#
0P#
0T#
#24000000
1!
b001100 $
b0011 %
b00 &
1'
b00011 *
b00011 4
b00011 5
16
b00011 8
1:
1>
b0011 @
0B
1C
b000001 F
b1010 G
b00 H
b000001 J
b000001 K
1L
b0000 N
b1010 O
1P
b10 R
b00 S
1T
1V
0W
1Z
1b
1f
0i
1l
1t
1x
1{
1!"
1)"
1-"
00"
13"
1;"
1?"
1D"
b101011 G"
b00 I"
b101011 L"
1M"
b1010 O"
1Q"
b00 T"
1U"
1["
1c"
1g"
1j"
1m"
1u"
1y"
1"#
1*#
1.#
01#
14#
1<#
1@#
1D#
1H#
1L#
1P#
1T#
#25000000
0!
0'
06
0:
0>
0C
0L
0P
0T
0Z
0b
0f
0l
0t
0x
0!"
0)"
0-"
03"
0;"
0?"
0D"
0M"
0Q"
0U"
0["
0c"
0g"
0m"
0u"
0y"
0"#
0*#
0.#
04#
0<#
0@#
0D#
0H#
0L#
0P#
0T#
#26000000
1!
b001101 $
b01 &
1'
b00011 +
16
b00011 9
1:
1>
1B
1C
b101011 F
b0000 G
b10 H
b101011 J
b101011 K
1L
b1010 N
b0000 O
1P
b00 R
b10 S
1T
1W
1Z
1b
1f
1i
1l
1t
1x
0{
1!"
1)"
1-"
10"
13"
1;"
1?"
b0011 A"
0C"
1D"
b1010 H"
b000001 K"
1M"
b1010 P"
1Q"
b10 S"
1U"
1W"
0X"
1["
1c"
1g"
1m"
1u"
1y"
1|"
1"#
1*#
1.#
14#
1<#
1@#
1D#
1H#
1L#
1P#
1T#
#27000000
0!
0'
06
0:
0>
0C
0L
0P
0T
0Z
0b
0f
0l
0t
0x
0!"
0)"
0-"
03"
0;"
0?"
0D"
0M"
0Q"
0U"
0["
0c"
0g"
0m"
0u"
0y"
0"#
0*#
0.#
04#
0<#
0@#
0D#
0H#
0L#
0P#
0T#
#28000000
1!
b001110 $
b10 &
1'
b10011 *
b10011 4
b10011 5
16
b10011 8
1:
1>
0B
1C
b000001 F
b1010 G
b00 H
b000001 J
b000001 K
1L
b0000 N
b1010 O
1P
b10 R
b00 S
1T
0W
1Z
1b
1f
0i
1l
1t
1x
1{
1!"
1)"
1-"
00"
13"
1;"
1?"
1D"
b000001 G"
b10 I"
b000001 L"
1M"
b0000 O"
1Q"
b10 T"
1U"
1["
1c"
1g"
0j"
1m"
1u"
1y"
1"#
1*#
1.#
11#
14#
1<#
1@#
1D#
1H#
1L#
1P#
1T#
#29000000
0!
0'
06
0:
0>
0C
0L
0P
0T
0Z
0b
0f
0l
0t
0x
0!"
0)"
0-"
03"
0;"
0?"
0D"
0M"
0Q"
0U"
0["
0c"
0g"
0m"
0u"
0y"
0"#
0*#
0.#
04#
0<#
0@#
0D#
0H#
0L#
0P#
0T#
#30000000
1!
b001111 $
b11 &
1'
b10011 +
16
b10011 9
1:
1>
1B
1C
b101011 F
b0000 G
b10 H
b101011 J
b101011 K
1L
b1010 N
b0000 O
1P
b00 R
b10 S
1T
1W
1Z
1b
1f
1i
1l
1t
1x
0{
1!"
1)"
1-"
10"
13"
1;"
1?"
1C"
1D"
b0000 H"
b101011 K"
1M"
b0000 P"
1Q"
b00 S"
1U"
1X"
1["
1c"
1g"
1m"
1u"
1y"
0|"
1"#
1*#
1.#
14#
1<#
1@#
1D#
1H#
1L#
1P#
1T#
#31000000
0!
0'
06
0:
0>
0C
0L
0P
0T
0Z
0b
0f
0l
0t
0x
0!"
0)"
0-"
03"
0;"
0?"
0D"
0M"
0Q"
0U"
0["
0c"
0g"
0m"
0u"
0y"
0"#
0*#
0.#
04#
0<#
0@#
0D#
0H#
0L#
0P#
0T#
#32000000
1!
b010000 $
b0100 %
b00 &
1'
b00100 *
b00100 4
b00100 5
16
b00100 8
1:
1>
b0100 @
0B
1C
b000100 F
b1010 G
b00 H
b000100 J
b000100 K
1L
b0001 N
b1010 O
1P
b10 R
b00 S
1T
0V
0W
1Z
1b
1f
0h
0i
1l
1t
1x
1{
1!"
1)"
1-"
00"
13"
1;"
1?"
1D"
b101011 G"
b00 I"
b101011 L"
1M"
b1010 O"
1Q"
b00 T"
1U"
1["
1c"
1g"
1j"
1m"
1u"
1y"
1"#
1*#
1.#
01#
14#
1<#
1@#
1D#
1H#
1L#
1P#
1T#
#33000000
0!
0'
06
0:
0>
0C
0L
0P
0T
0Z
0b
0f
0l
0t
0x
0!"
0)"
0-"
03"
0;"
0?"
0D"
0M"
0Q"
0U"
0["
0c"
0g"
0m"
0u"
0y"
0"#
0*#
0.#
04#
0<#
0@#
0D#
0H#
0L#
0P#
0T#
#34000000
1!
b010001 $
b01 &
1'
b00100 +
16
b00100 9
1:
1>
1B
1C
b101110 F
b0001 G
b10 H
b101110 J
b101110 K
1L
b1011 N
b0001 O
1P
b00 R
b10 S
1T
1W
1Z
1b
1f
1i
1l
1t
1x
1z
0{
1!"
1)"
1-"
10"
13"
1;"
1?"
b0100 A"
0C"
1D"
b1010 H"
b000100 K"
1M"
b1010 P"
1Q"
b10 S"
1U"
0W"
0X"
1["
1c"
1g"
1m"
1u"
1y"
1|"
1"#
1*#
1.#
14#
1<#
1@#
1D#
1H#
1L#
1P#
1T#
#35000000
0!
0'
06
0:
0>
0C
0L
0P
0T
0Z
0b
0f
0l
0t
0x
0!"
0)"
0-"
03"
0;"
0?"
0D"
0M"
0Q"
0U"
0["
0c"
0g"
0m"
0u"
0y"
0"#
0*#
0.#
04#
0<#
0@#
0D#
0H#
0L#
0P#
0T#
#36000000
1!
b010010 $
b10 &
1'
b10100 *
b10100 4
b10100 5
16
b10100 8
1:
1>
0B
1C
b000100 F
b1011 G
b00 H
b000100 J
b000100 K
1L
b0001 N
b1011 O
1P
b10 R
b00 S
1T
0W
1Z
1b
1f
0i
1l
1t
1x
1{
1!"
1)"
1-"
00"
13"
1;"
1?"
1D"
b000100 G"
b10 I"
b000100 L"
1M"
b0001 O"
1Q"
b10 T"
1U"
1["
1c"
1g"
0i"
0j"
1m"
1u"
1y"
1"#
1*#
1.#
11#
14#
1<#
1@#
1D#
1H#
1L#
1P#
1T#
#37000000
0!
0'
06
0:
0>
0C
0L
0P
0T
0Z
0b
0f
0l
0t
0x
0!"
0)"
0-"
03"
0;"
0?"
0D"
0M"
0Q"
0U"
0["
0c"
0g"
0m"
0u"
0y"
0"#
0*#
0.#
04#
0<#
0@#
0D#
0H#
0L#
0P#
0T#
#38000000
1!
b010011 $
b11 &
1'
b10100 +
16
b10100 9
1:
1>
1B
1C
b101110 F
b0001 G
b10 H
b101110 J
b101110 K
1L
b1011 N
b0001 O
1P
b00 R
b10 S
1T
1W
1Z
1b
1f
1i
1l
1t
1x
0{
1!"
1)"
1-"
10"
13"
1;"
1?"
1C"
1D"
b0001 H"
b101110 K"
1M"
b0001 P"
1Q"
b00 S"
1U"
1X"
1["
1c"
1g"
1m"
1u"
1y"
1{"
0|"
1"#
1*#
1.#
14#
1<#
1@#
1D#
1H#
1L#
1P#
1T#
#39000000
0!
0'
06
0:
0>
0C
0L
0P
0T
0Z
0b
0f
0l
0t
0x
0!"
0)"
0-"
03"
0;"
0?"
0D"
0M"
0Q"
0U"
0["
0c"
0g"
0m"
0u"
0y"
0"#
0*#
0.#
04#
0<#
0@#
0D#
0H#
0L#
0P#
0T#
